3086629576 T
3086629604 T
3086629599 N
3086629604 T
3086629599 N
3086629604 T
3086629599 N
3086629604 T
3086629599 N
3086629604 T
3086629599 N
3086629604 T
3086629599 N
3086629604 T
3086629599 N
3086629604 T
3086629599 N
3086629604 T
3086629599 N
3086629604 T
3086629599 N
3086629604 T
3086629599 N
3086629604 T
3086629599 N
3086629604 T
3086629599 N
3086629604 N
3086629616 N
3086629644 T
3086629604 N
3086629616 N
3086629644 T
3086629604 N
3086629616 N
3086629644 T
3086629604 N
3086629616 N
3086629644 N
3086629656 N
3086629666 N